^C:\USERS\SWANE\SOURCE\REPOS\POKEMON ADVENTURE\POKEMON ADVENTURE\GAMEMANAGER.CPP|C:\USERS\SWANE\SOURCE\REPOS\POKEMON ADVENTURE\POKEMON ADVENTURE\LOCATION.CPP|C:\USERS\SWANE\SOURCE\REPOS\POKEMON ADVENTURE\POKEMON ADVENTURE\MAP.CPP|C:\USERS\SWANE\SOURCE\REPOS\POKEMON ADVENTURE\POKEMON ADVENTURE\POKEDEX.CPP|C:\USERS\SWANE\SOURCE\REPOS\POKEMON ADVENTURE\POKEMON ADVENTURE\POKEMON.CPP|C:\USERS\SWANE\SOURCE\REPOS\POKEMON ADVENTURE\POKEMON ADVENTURE\SOURCE.CPP|C:\USERS\SWANE\SOURCE\REPOS\POKEMON ADVENTURE\POKEMON ADVENTURE\TRAINER.CPP
C:\USERS\SWANE\SOURCE\REPOS\POKEMON ADVENTURE\POKEMON ADVENTURE\DEBUG\VC141.PDB
C:\USERS\SWANE\SOURCE\REPOS\POKEMON ADVENTURE\POKEMON ADVENTURE\DEBUG\VC141.IDB
C:\USERS\SWANE\SOURCE\REPOS\POKEMON ADVENTURE\POKEMON ADVENTURE\DEBUG\TRAINER.OBJ
C:\USERS\SWANE\SOURCE\REPOS\POKEMON ADVENTURE\POKEMON ADVENTURE\DEBUG\SOURCE.OBJ
C:\USERS\SWANE\SOURCE\REPOS\POKEMON ADVENTURE\POKEMON ADVENTURE\DEBUG\POKEMON.OBJ
C:\USERS\SWANE\SOURCE\REPOS\POKEMON ADVENTURE\POKEMON ADVENTURE\DEBUG\POKEDEX.OBJ
C:\USERS\SWANE\SOURCE\REPOS\POKEMON ADVENTURE\POKEMON ADVENTURE\DEBUG\MAP.OBJ
C:\USERS\SWANE\SOURCE\REPOS\POKEMON ADVENTURE\POKEMON ADVENTURE\DEBUG\LOCATION.OBJ
C:\USERS\SWANE\SOURCE\REPOS\POKEMON ADVENTURE\POKEMON ADVENTURE\DEBUG\GAMEMANAGER.OBJ
^C:\USERS\SWANE\SOURCE\REPOS\POKEMON ADVENTURE\POKEMON ADVENTURE\LOCATION.CPP
C:\USERS\SWANE\SOURCE\REPOS\POKEMON ADVENTURE\POKEMON ADVENTURE\DEBUG\VC141.PDB
^C:\USERS\SWANE\SOURCE\REPOS\POKEMON ADVENTURE\POKEMON ADVENTURE\MAP.CPP
C:\USERS\SWANE\SOURCE\REPOS\POKEMON ADVENTURE\POKEMON ADVENTURE\DEBUG\VC141.PDB
^C:\USERS\SWANE\SOURCE\REPOS\POKEMON ADVENTURE\POKEMON ADVENTURE\SOURCE.CPP|C:\USERS\SWANE\SOURCE\REPOS\POKEMON ADVENTURE\POKEMON ADVENTURE\TRAINER.CPP
C:\USERS\SWANE\SOURCE\REPOS\POKEMON ADVENTURE\POKEMON ADVENTURE\DEBUG\VC141.PDB
C:\USERS\SWANE\SOURCE\REPOS\POKEMON ADVENTURE\POKEMON ADVENTURE\DEBUG\VC141.IDB
C:\USERS\SWANE\SOURCE\REPOS\POKEMON ADVENTURE\POKEMON ADVENTURE\DEBUG\TRAINER.OBJ
C:\USERS\SWANE\SOURCE\REPOS\POKEMON ADVENTURE\POKEMON ADVENTURE\DEBUG\SOURCE.OBJ
^C:\USERS\SWANE\SOURCE\REPOS\POKEMON ADVENTURE\POKEMON ADVENTURE\POKEDEX.CPP|C:\USERS\SWANE\SOURCE\REPOS\POKEMON ADVENTURE\POKEMON ADVENTURE\POKEMON.CPP|C:\USERS\SWANE\SOURCE\REPOS\POKEMON ADVENTURE\POKEMON ADVENTURE\SOURCE.CPP|C:\USERS\SWANE\SOURCE\REPOS\POKEMON ADVENTURE\POKEMON ADVENTURE\TRAINER.CPP
C:\USERS\SWANE\SOURCE\REPOS\POKEMON ADVENTURE\POKEMON ADVENTURE\DEBUG\VC141.PDB
C:\USERS\SWANE\SOURCE\REPOS\POKEMON ADVENTURE\POKEMON ADVENTURE\DEBUG\VC141.IDB
C:\USERS\SWANE\SOURCE\REPOS\POKEMON ADVENTURE\POKEMON ADVENTURE\DEBUG\TRAINER.OBJ
C:\USERS\SWANE\SOURCE\REPOS\POKEMON ADVENTURE\POKEMON ADVENTURE\DEBUG\POKEMON.OBJ
C:\USERS\SWANE\SOURCE\REPOS\POKEMON ADVENTURE\POKEMON ADVENTURE\DEBUG\POKEDEX.OBJ
^C:\USERS\SWANE\SOURCE\REPOS\POKEMON ADVENTURE\POKEMON ADVENTURE\GAMEMANAGER.CPP|C:\USERS\SWANE\SOURCE\REPOS\POKEMON ADVENTURE\POKEMON ADVENTURE\POKEDEX.CPP|C:\USERS\SWANE\SOURCE\REPOS\POKEMON ADVENTURE\POKEMON ADVENTURE\SOURCE.CPP|C:\USERS\SWANE\SOURCE\REPOS\POKEMON ADVENTURE\POKEMON ADVENTURE\TRAINER.CPP
C:\USERS\SWANE\SOURCE\REPOS\POKEMON ADVENTURE\POKEMON ADVENTURE\DEBUG\VC141.PDB
C:\USERS\SWANE\SOURCE\REPOS\POKEMON ADVENTURE\POKEMON ADVENTURE\DEBUG\VC141.IDB
C:\USERS\SWANE\SOURCE\REPOS\POKEMON ADVENTURE\POKEMON ADVENTURE\DEBUG\TRAINER.OBJ
C:\USERS\SWANE\SOURCE\REPOS\POKEMON ADVENTURE\POKEMON ADVENTURE\DEBUG\SOURCE.OBJ
C:\USERS\SWANE\SOURCE\REPOS\POKEMON ADVENTURE\POKEMON ADVENTURE\DEBUG\POKEDEX.OBJ
C:\USERS\SWANE\SOURCE\REPOS\POKEMON ADVENTURE\POKEMON ADVENTURE\DEBUG\GAMEMANAGER.OBJ
^C:\USERS\SWANE\SOURCE\REPOS\POKEMON ADVENTURE\POKEMON ADVENTURE\GAMEMANAGER.CPP|C:\USERS\SWANE\SOURCE\REPOS\POKEMON ADVENTURE\POKEMON ADVENTURE\SOURCE.CPP|C:\USERS\SWANE\SOURCE\REPOS\POKEMON ADVENTURE\POKEMON ADVENTURE\TRAINER.CPP
C:\USERS\SWANE\SOURCE\REPOS\POKEMON ADVENTURE\POKEMON ADVENTURE\DEBUG\VC141.PDB
C:\USERS\SWANE\SOURCE\REPOS\POKEMON ADVENTURE\POKEMON ADVENTURE\DEBUG\VC141.IDB
C:\USERS\SWANE\SOURCE\REPOS\POKEMON ADVENTURE\POKEMON ADVENTURE\DEBUG\TRAINER.OBJ
C:\USERS\SWANE\SOURCE\REPOS\POKEMON ADVENTURE\POKEMON ADVENTURE\DEBUG\SOURCE.OBJ
C:\USERS\SWANE\SOURCE\REPOS\POKEMON ADVENTURE\POKEMON ADVENTURE\DEBUG\GAMEMANAGER.OBJ
^C:\USERS\SWANE\SOURCE\REPOS\POKEMON ADVENTURE\POKEMON ADVENTURE\GAMEMANAGER.CPP|C:\USERS\SWANE\SOURCE\REPOS\POKEMON ADVENTURE\POKEMON ADVENTURE\TRAINER.CPP
C:\USERS\SWANE\SOURCE\REPOS\POKEMON ADVENTURE\POKEMON ADVENTURE\DEBUG\VC141.PDB
C:\USERS\SWANE\SOURCE\REPOS\POKEMON ADVENTURE\POKEMON ADVENTURE\DEBUG\VC141.IDB
C:\USERS\SWANE\SOURCE\REPOS\POKEMON ADVENTURE\POKEMON ADVENTURE\DEBUG\TRAINER.OBJ
C:\USERS\SWANE\SOURCE\REPOS\POKEMON ADVENTURE\POKEMON ADVENTURE\DEBUG\GAMEMANAGER.OBJ
^C:\USERS\SWANE\SOURCE\REPOS\POKEMON ADVENTURE\POKEMON ADVENTURE\GAMEMANAGER.CPP|C:\USERS\SWANE\SOURCE\REPOS\POKEMON ADVENTURE\POKEMON ADVENTURE\POKEMON.CPP|C:\USERS\SWANE\SOURCE\REPOS\POKEMON ADVENTURE\POKEMON ADVENTURE\SOURCE.CPP|C:\USERS\SWANE\SOURCE\REPOS\POKEMON ADVENTURE\POKEMON ADVENTURE\TRAINER.CPP
C:\USERS\SWANE\SOURCE\REPOS\POKEMON ADVENTURE\POKEMON ADVENTURE\DEBUG\VC141.PDB
C:\USERS\SWANE\SOURCE\REPOS\POKEMON ADVENTURE\POKEMON ADVENTURE\DEBUG\VC141.IDB
C:\USERS\SWANE\SOURCE\REPOS\POKEMON ADVENTURE\POKEMON ADVENTURE\DEBUG\TRAINER.OBJ
C:\USERS\SWANE\SOURCE\REPOS\POKEMON ADVENTURE\POKEMON ADVENTURE\DEBUG\SOURCE.OBJ
C:\USERS\SWANE\SOURCE\REPOS\POKEMON ADVENTURE\POKEMON ADVENTURE\DEBUG\POKEMON.OBJ
C:\USERS\SWANE\SOURCE\REPOS\POKEMON ADVENTURE\POKEMON ADVENTURE\DEBUG\GAMEMANAGER.OBJ
^C:\USERS\SWANE\SOURCE\REPOS\POKEMON ADVENTURE\POKEMON ADVENTURE\GAMEMANAGER.CPP|C:\USERS\SWANE\SOURCE\REPOS\POKEMON ADVENTURE\POKEMON ADVENTURE\POKEDEX.CPP|C:\USERS\SWANE\SOURCE\REPOS\POKEMON ADVENTURE\POKEMON ADVENTURE\POKEMON.CPP|C:\USERS\SWANE\SOURCE\REPOS\POKEMON ADVENTURE\POKEMON ADVENTURE\SOURCE.CPP|C:\USERS\SWANE\SOURCE\REPOS\POKEMON ADVENTURE\POKEMON ADVENTURE\TRAINER.CPP
C:\USERS\SWANE\SOURCE\REPOS\POKEMON ADVENTURE\POKEMON ADVENTURE\DEBUG\VC141.PDB
C:\USERS\SWANE\SOURCE\REPOS\POKEMON ADVENTURE\POKEMON ADVENTURE\DEBUG\VC141.IDB
C:\USERS\SWANE\SOURCE\REPOS\POKEMON ADVENTURE\POKEMON ADVENTURE\DEBUG\TRAINER.OBJ
C:\USERS\SWANE\SOURCE\REPOS\POKEMON ADVENTURE\POKEMON ADVENTURE\DEBUG\SOURCE.OBJ
C:\USERS\SWANE\SOURCE\REPOS\POKEMON ADVENTURE\POKEMON ADVENTURE\DEBUG\POKEMON.OBJ
C:\USERS\SWANE\SOURCE\REPOS\POKEMON ADVENTURE\POKEMON ADVENTURE\DEBUG\POKEDEX.OBJ
^C:\USERS\SWANE\SOURCE\REPOS\POKEMON ADVENTURE\POKEMON ADVENTURE\POKEMON.CPP
C:\USERS\SWANE\SOURCE\REPOS\POKEMON ADVENTURE\POKEMON ADVENTURE\DEBUG\POKEMON.OBJ
^C:\USERS\SWANE\SOURCE\REPOS\POKEMON ADVENTURE\POKEMON ADVENTURE\SOURCE.CPP
C:\USERS\SWANE\SOURCE\REPOS\POKEMON ADVENTURE\POKEMON ADVENTURE\DEBUG\SOURCE.OBJ
^C:\USERS\SWANE\SOURCE\REPOS\POKEMON ADVENTURE\POKEMON ADVENTURE\GAMEMANAGER.CPP|C:\USERS\SWANE\SOURCE\REPOS\POKEMON ADVENTURE\POKEMON ADVENTURE\POKEDEX.CPP
C:\USERS\SWANE\SOURCE\REPOS\POKEMON ADVENTURE\POKEMON ADVENTURE\DEBUG\VC141.PDB
C:\USERS\SWANE\SOURCE\REPOS\POKEMON ADVENTURE\POKEMON ADVENTURE\DEBUG\VC141.IDB
C:\USERS\SWANE\SOURCE\REPOS\POKEMON ADVENTURE\POKEMON ADVENTURE\DEBUG\POKEDEX.OBJ
^C:\USERS\SWANE\SOURCE\REPOS\POKEMON ADVENTURE\POKEMON ADVENTURE\GAMEMANAGER.CPP
C:\USERS\SWANE\SOURCE\REPOS\POKEMON ADVENTURE\POKEMON ADVENTURE\DEBUG\VC141.PDB
C:\USERS\SWANE\SOURCE\REPOS\POKEMON ADVENTURE\POKEMON ADVENTURE\DEBUG\VC141.IDB
C:\USERS\SWANE\SOURCE\REPOS\POKEMON ADVENTURE\POKEMON ADVENTURE\DEBUG\GAMEMANAGER.OBJ
^C:\USERS\SWANE\SOURCE\REPOS\POKEMON ADVENTURE\POKEMON ADVENTURE\POKEDEX.CPP
C:\USERS\SWANE\SOURCE\REPOS\POKEMON ADVENTURE\POKEMON ADVENTURE\DEBUG\VC141.PDB
C:\USERS\SWANE\SOURCE\REPOS\POKEMON ADVENTURE\POKEMON ADVENTURE\DEBUG\VC141.IDB
C:\USERS\SWANE\SOURCE\REPOS\POKEMON ADVENTURE\POKEMON ADVENTURE\DEBUG\POKEDEX.OBJ
^C:\USERS\SWANE\SOURCE\REPOS\POKEMON ADVENTURE\POKEMON ADVENTURE\TRAINER.CPP
C:\USERS\SWANE\SOURCE\REPOS\POKEMON ADVENTURE\POKEMON ADVENTURE\DEBUG\VC141.PDB
C:\USERS\SWANE\SOURCE\REPOS\POKEMON ADVENTURE\POKEMON ADVENTURE\DEBUG\VC141.IDB
C:\USERS\SWANE\SOURCE\REPOS\POKEMON ADVENTURE\POKEMON ADVENTURE\DEBUG\TRAINER.OBJ
