^C:\USERS\SWANE\SOURCE\REPOS\POKEMON ADVENTURE\POKEMON ADVENTURE\DEBUG\GAMEMANAGER.OBJ|C:\USERS\SWANE\SOURCE\REPOS\POKEMON ADVENTURE\POKEMON ADVENTURE\DEBUG\LOCATION.OBJ|C:\USERS\SWANE\SOURCE\REPOS\POKEMON ADVENTURE\POKEMON ADVENTURE\DEBUG\MAP.OBJ|C:\USERS\SWANE\SOURCE\REPOS\POKEMON ADVENTURE\POKEMON ADVENTURE\DEBUG\POKEDEX.OBJ|C:\USERS\SWANE\SOURCE\REPOS\POKEMON ADVENTURE\POKEMON ADVENTURE\DEBUG\POKEMON.OBJ|C:\USERS\SWANE\SOURCE\REPOS\POKEMON ADVENTURE\POKEMON ADVENTURE\DEBUG\SOURCE.OBJ|C:\USERS\SWANE\SOURCE\REPOS\POKEMON ADVENTURE\POKEMON ADVENTURE\DEBUG\TRAINER.OBJ
C:\PROGRAM FILES (X86)\WINDOWS KITS\10\LIB\10.0.17763.0\UM\X86\KERNEL32.LIB
C:\PROGRAM FILES (X86)\WINDOWS KITS\10\LIB\10.0.17763.0\UM\X86\USER32.LIB
C:\PROGRAM FILES (X86)\WINDOWS KITS\10\LIB\10.0.17763.0\UM\X86\GDI32.LIB
C:\PROGRAM FILES (X86)\WINDOWS KITS\10\LIB\10.0.17763.0\UM\X86\WINSPOOL.LIB
C:\PROGRAM FILES (X86)\WINDOWS KITS\10\LIB\10.0.17763.0\UM\X86\COMDLG32.LIB
C:\PROGRAM FILES (X86)\WINDOWS KITS\10\LIB\10.0.17763.0\UM\X86\ADVAPI32.LIB
C:\PROGRAM FILES (X86)\WINDOWS KITS\10\LIB\10.0.17763.0\UM\X86\SHELL32.LIB
C:\PROGRAM FILES (X86)\WINDOWS KITS\10\LIB\10.0.17763.0\UM\X86\OLE32.LIB
C:\PROGRAM FILES (X86)\WINDOWS KITS\10\LIB\10.0.17763.0\UM\X86\OLEAUT32.LIB
C:\PROGRAM FILES (X86)\WINDOWS KITS\10\LIB\10.0.17763.0\UM\X86\UUID.LIB
C:\PROGRAM FILES (X86)\WINDOWS KITS\10\LIB\10.0.17763.0\UM\X86\ODBC32.LIB
C:\PROGRAM FILES (X86)\WINDOWS KITS\10\LIB\10.0.17763.0\UM\X86\ODBCCP32.LIB
C:\USERS\SWANE\SOURCE\REPOS\POKEMON ADVENTURE\POKEMON ADVENTURE\DEBUG\GAMEMANAGER.OBJ
C:\USERS\SWANE\SOURCE\REPOS\POKEMON ADVENTURE\POKEMON ADVENTURE\DEBUG\LOCATION.OBJ
C:\USERS\SWANE\SOURCE\REPOS\POKEMON ADVENTURE\POKEMON ADVENTURE\DEBUG\MAP.OBJ
C:\USERS\SWANE\SOURCE\REPOS\POKEMON ADVENTURE\POKEMON ADVENTURE\DEBUG\POKEDEX.OBJ
C:\USERS\SWANE\SOURCE\REPOS\POKEMON ADVENTURE\POKEMON ADVENTURE\DEBUG\POKEMON.OBJ
C:\USERS\SWANE\SOURCE\REPOS\POKEMON ADVENTURE\POKEMON ADVENTURE\DEBUG\SOURCE.OBJ
C:\USERS\SWANE\SOURCE\REPOS\POKEMON ADVENTURE\POKEMON ADVENTURE\DEBUG\TRAINER.OBJ
C:\WINDOWS\SYSTEM32\TZRES.DLL
C:\WINDOWS\GLOBALIZATION\SORTING\SORTDEFAULT.NLS
C:\PROGRAM FILES (X86)\MICROSOFT VISUAL STUDIO\2017\ENTERPRISE\VC\TOOLS\MSVC\14.16.27023\LIB\X86\MSVCPRTD.LIB
C:\PROGRAM FILES (X86)\MICROSOFT VISUAL STUDIO\2017\ENTERPRISE\VC\TOOLS\MSVC\14.16.27023\LIB\X86\MSVCRTD.LIB
C:\PROGRAM FILES (X86)\MICROSOFT VISUAL STUDIO\2017\ENTERPRISE\VC\TOOLS\MSVC\14.16.27023\LIB\X86\OLDNAMES.LIB
C:\PROGRAM FILES (X86)\MICROSOFT VISUAL STUDIO\2017\ENTERPRISE\VC\TOOLS\MSVC\14.16.27023\LIB\X86\VCRUNTIMED.LIB
C:\PROGRAM FILES (X86)\WINDOWS KITS\10\LIB\10.0.17763.0\UCRT\X86\UCRTD.LIB
